{
	"info": {
		"_postman_id": "babd72cb-831a-473f-83cd-8a5b07a3d6fb",
		"name": "eCommerce API - option 1",
		"schema": "https://schema.getpostman.com/json/collection/v2.1.0/collection.json",
		"_exporter_id": "23154534"
	},
	"item": [
		{
			"name": "users",
			"item": [
				{
					"name": "check if email exists",
					"request": {
						"method": "POST",
						"header": [],
						"body": {
							"mode": "raw",
							"raw": "{\r\n    \"email\":\"kimi@catmail.com\"\r\n}",
							"options": {
								"raw": {
									"language": "json"
								}
							}
						},
						"url": {
							"raw": "http://localhost:8003/users/check-email",
							"protocol": "http",
							"host": [
								"localhost"
							],
							"port": "8003",
							"path": [
								"users",
								"check-email"
							]
						}
					},
					"response": []
				},
				{
					"name": "user registration",
					"request": {
						"auth": {
							"type": "bearer",
							"bearer": [
								{
									"key": "token",
									"value": "eyJhbGciOiJIUzI1NiIsInR5cCI6IkpXVCJ9.eyJpZCI6IjYzM2U0YTkyNDZmOTljYjRlNTE1ZjMyNSIsImVtYWlsIjoia2ltaUBjYXRtYWlsLmNvbSIsImlzQWRtaW4iOmZhbHNlLCJpYXQiOjE2NjUwMzkyNjl9.mtNPLC5vrs_y4DECaqeFIfHBXLP8UTA9Kxg1Uo0LrXA",
									"type": "string"
								}
							]
						},
						"method": "POST",
						"header": [],
						"body": {
							"mode": "raw",
							"raw": "{\r\n   \"firstName\":\"Sugar\",\r\n   \"lastName\":\"Neko\",\r\n   \"email\":\"sugar@catmail.com\",\r\n   \"mobileNo\": \"0234567892\",\r\n   \"password\":\"password\"\r\n}",
							"options": {
								"raw": {
									"language": "json"
								}
							}
						},
						"url": {
							"raw": "http://localhost:8003/users/register",
							"protocol": "http",
							"host": [
								"localhost"
							],
							"port": "8003",
							"path": [
								"users",
								"register"
							]
						}
					},
					"response": []
				},
				{
					"name": "user authentication",
					"request": {
						"auth": {
							"type": "bearer",
							"bearer": [
								{
									"key": "token",
									"value": "",
									"type": "string"
								}
							]
						},
						"method": "POST",
						"header": [],
						"body": {
							"mode": "raw",
							"raw": "{\r\n    \"email\":\"kira@catmail.com\",\r\n    \"password\": \"password\"\r\n}",
							"options": {
								"raw": {
									"language": "json"
								}
							}
						},
						"url": {
							"raw": "http://localhost:8003/users/login",
							"protocol": "http",
							"host": [
								"localhost"
							],
							"port": "8003",
							"path": [
								"users",
								"login"
							]
						}
					},
					"response": []
				},
				{
					"name": "create order",
					"request": {
						"auth": {
							"type": "bearer",
							"bearer": [
								{
									"key": "token",
									"value": "eyJhbGciOiJIUzI1NiIsInR5cCI6IkpXVCJ9.eyJpZCI6IjYzNDE5OTU4OWYzNmYwMzVhMTIzMWFmMyIsImVtYWlsIjoia2lyYUBjYXRtYWlsLmNvbSIsImlzQWRtaW4iOmZhbHNlLCJpYXQiOjE2NjU0NTI4NDZ9.RZWqVplVoWXF9d0t159OWMu8wJDVIiB7cVbggN-O9jA",
									"type": "string"
								}
							]
						},
						"method": "POST",
						"header": [],
						"body": {
							"mode": "raw",
							"raw": "{\r\n    \"userId\": \"634199589f36f035a1231af3\",\r\n    \"productId\": \"63419ae79f36f035a1231b03\",\r\n    \"quantity\": 1, \r\n    \"email\": \"kira@catmail.com\"\r\n}",
							"options": {
								"raw": {
									"language": "json"
								}
							}
						},
						"url": {
							"raw": "http://localhost:8003/users/order",
							"protocol": "http",
							"host": [
								"localhost"
							],
							"port": "8003",
							"path": [
								"users",
								"order"
							]
						}
					},
					"response": []
				},
				{
					"name": "get user details",
					"protocolProfileBehavior": {
						"disableBodyPruning": true
					},
					"request": {
						"auth": {
							"type": "bearer",
							"bearer": [
								{
									"key": "token",
									"value": "eyJhbGciOiJIUzI1NiIsInR5cCI6IkpXVCJ9.eyJpZCI6IjYzNDE5OTczOWYzNmYwMzVhMTIzMWFmNSIsImVtYWlsIjoia3VtaUBjYXRtYWlsLmNvbSIsImlzQWRtaW4iOnRydWUsImlhdCI6MTY2NTMyMjE4NH0.vu9Rty6Hdfd6w36AymoKU-BORaKz6hKtCMpFo5gInaA",
									"type": "string"
								}
							]
						},
						"method": "GET",
						"header": [],
						"body": {
							"mode": "raw",
							"raw": ""
						},
						"url": {
							"raw": "http://localhost:8003/users/634199739f36f035a1231af5/details",
							"protocol": "http",
							"host": [
								"localhost"
							],
							"port": "8003",
							"path": [
								"users",
								"634199739f36f035a1231af5",
								"details"
							]
						}
					},
					"response": []
				},
				{
					"name": "set user to admin",
					"request": {
						"auth": {
							"type": "bearer",
							"bearer": [
								{
									"key": "token",
									"value": "eyJhbGciOiJIUzI1NiIsInR5cCI6IkpXVCJ9.eyJpZCI6IjYzNDE5OTczOWYzNmYwMzVhMTIzMWFmNSIsImVtYWlsIjoia3VtaUBjYXRtYWlsLmNvbSIsImlzQWRtaW4iOnRydWUsImlhdCI6MTY2NTQ1NjM4Mn0.4XgGMUD9zA1jQgKl1R9An6YPvpG1_5GOyQWAXnRyvyo",
									"type": "string"
								}
							]
						},
						"method": "PATCH",
						"header": [],
						"body": {
							"mode": "raw",
							"raw": "{\r\n    \"isAdmin\":true\r\n}",
							"options": {
								"raw": {
									"language": "json"
								}
							}
						},
						"url": {
							"raw": "http://localhost:8003/users/6341998b9f36f035a1231af7/userUpdate",
							"protocol": "http",
							"host": [
								"localhost"
							],
							"port": "8003",
							"path": [
								"users",
								"6341998b9f36f035a1231af7",
								"userUpdate"
							]
						}
					},
					"response": []
				}
			]
		},
		{
			"name": "products",
			"item": [
				{
					"name": "create product",
					"request": {
						"auth": {
							"type": "bearer",
							"bearer": [
								{
									"key": "token",
									"value": "eyJhbGciOiJIUzI1NiIsInR5cCI6IkpXVCJ9.eyJpZCI6IjYzNDE5OTczOWYzNmYwMzVhMTIzMWFmNSIsImVtYWlsIjoia3VtaUBjYXRtYWlsLmNvbSIsImlzQWRtaW4iOnRydWUsImlhdCI6MTY2NTQ1NTY3NH0.ImU9RtDVegPsEgBkhdblR81sQaap3n5KTgo5xvJMk1c",
									"type": "string"
								}
							]
						},
						"method": "POST",
						"header": [],
						"body": {
							"mode": "raw",
							"raw": "{\r\n    \"name\": \"Special Roasted Chicken\",\r\n    \"description\": \"1 Whole Roasted Chicken - with special secret recipe \",\r\n    \"price\": 279,\r\n    \"isActive\": true\r\n}",
							"options": {
								"raw": {
									"language": "json"
								}
							}
						},
						"url": {
							"raw": "http://localhost:8003/product/create",
							"protocol": "http",
							"host": [
								"localhost"
							],
							"port": "8003",
							"path": [
								"product",
								"create"
							]
						}
					},
					"response": []
				},
				{
					"name": "get all products",
					"protocolProfileBehavior": {
						"disableBodyPruning": true
					},
					"request": {
						"method": "GET",
						"header": [],
						"body": {
							"mode": "raw",
							"raw": "",
							"options": {
								"raw": {
									"language": "json"
								}
							}
						},
						"url": {
							"raw": "http://localhost:8003/product",
							"protocol": "http",
							"host": [
								"localhost"
							],
							"port": "8003",
							"path": [
								"product"
							]
						}
					},
					"response": []
				},
				{
					"name": "retrieve all active products",
					"request": {
						"method": "GET",
						"header": [],
						"url": {
							"raw": "http://localhost:8003/product/active",
							"protocol": "http",
							"host": [
								"localhost"
							],
							"port": "8003",
							"path": [
								"product",
								"active"
							]
						}
					},
					"response": []
				},
				{
					"name": "retrieve single product",
					"protocolProfileBehavior": {
						"disableBodyPruning": true
					},
					"request": {
						"method": "GET",
						"header": [],
						"body": {
							"mode": "raw",
							"raw": "",
							"options": {
								"raw": {
									"language": "json"
								}
							}
						},
						"url": {
							"raw": "http://localhost:8003/product/63419a409f36f035a1231afd",
							"protocol": "http",
							"host": [
								"localhost"
							],
							"port": "8003",
							"path": [
								"product",
								"63419a409f36f035a1231afd"
							]
						}
					},
					"response": []
				},
				{
					"name": "update a product",
					"request": {
						"auth": {
							"type": "bearer",
							"bearer": [
								{
									"key": "token",
									"value": "eyJhbGciOiJIUzI1NiIsInR5cCI6IkpXVCJ9.eyJpZCI6IjYzNDE5OTU4OWYzNmYwMzVhMTIzMWFmMyIsImVtYWlsIjoia2lyYUBjYXRtYWlsLmNvbSIsImlzQWRtaW4iOmZhbHNlLCJpYXQiOjE2NjU0NTY0NzB9.m2XVC7jol4aZxosEsTKfnyxpI2TsoqGkQJMMReFeKgo",
									"type": "string"
								}
							]
						},
						"method": "PATCH",
						"header": [],
						"body": {
							"mode": "raw",
							"raw": "{\r\n    \"description\": \"1 Whole Roasted Chicken with a touch of spicy goodness \"\r\n}",
							"options": {
								"raw": {
									"language": "json"
								}
							}
						},
						"url": {
							"raw": "http://localhost:8003/product/63419a409f36f035a1231afd/update",
							"protocol": "http",
							"host": [
								"localhost"
							],
							"port": "8003",
							"path": [
								"product",
								"63419a409f36f035a1231afd",
								"update"
							]
						}
					},
					"response": []
				},
				{
					"name": "archive product",
					"request": {
						"auth": {
							"type": "bearer",
							"bearer": [
								{
									"key": "token",
									"value": "eyJhbGciOiJIUzI1NiIsInR5cCI6IkpXVCJ9.eyJpZCI6IjYzNDE5OTU4OWYzNmYwMzVhMTIzMWFmMyIsImVtYWlsIjoia2lyYUBjYXRtYWlsLmNvbSIsImlzQWRtaW4iOmZhbHNlLCJpYXQiOjE2NjU0NTY0NzB9.m2XVC7jol4aZxosEsTKfnyxpI2TsoqGkQJMMReFeKgo",
									"type": "string"
								}
							]
						},
						"method": "PATCH",
						"header": [],
						"body": {
							"mode": "raw",
							"raw": ""
						},
						"url": {
							"raw": "http://localhost:8003/product/63419a409f36f035a1231afd/archive",
							"protocol": "http",
							"host": [
								"localhost"
							],
							"port": "8003",
							"path": [
								"product",
								"63419a409f36f035a1231afd",
								"archive"
							]
						}
					},
					"response": []
				}
			]
		}
	]
}